<?xml version="1.0" encoding="utf-8"?>
<!-- Generator: Adobe Illustrator 22.0.1, SVG Export Plug-In . SVG Version: 6.00 Build 0)  -->
<svg version="1.1" id="Layer_1" xmlns="http://www.w3.org/2000/svg" xmlns:xlink="http://www.w3.org/1999/xlink" x="0px" y="0px"
	 viewBox="0 0 100 50" style="enable-background:new 0 0 100 50;" xml:space="preserve">
<style type="text/css">
	.st0{fill:#F00B0A;}
</style>
<g>
	<g>
		<path d="M94.9,34.5c-0.1-0.4-0.2-0.8-0.3-1.2c-0.3-0.8-0.6-1.5-0.9-2.2c-0.3-0.7-0.6-1.4-0.9-2c-0.1-0.1-0.1-0.3-0.2-0.4
			c0.2-0.3,0.4-0.7,0.6-1c0.1-0.2,0.2-0.4,0.3-0.5c0.1-0.2,0.2-0.4,0.3-0.6l0.1-0.3L94,26c0-0.1,0-0.1,0.1-0.2
			c0-0.1,0.1-0.2,0.1-0.4l0.1-0.3l0-0.1l0-0.1c0,0,0,0,0-0.1l0,0l0-0.1c0,0,0-0.1,0-0.2c0-0.2,0-0.4,0-0.5c0-0.3-0.1-0.7-0.3-1.1
			c0-0.1-0.1-0.2-0.2-0.3c-0.1-0.1-0.2-0.2-0.3-0.3c-0.2-0.2-0.5-0.4-0.8-0.5c-0.3-0.1-0.6-0.2-0.9-0.1c-0.1,0-0.3,0-0.4,0.1
			c-0.1,0-0.3,0.1-0.4,0.1c-0.5,0.2-0.8,0.4-1,0.7c-0.3,0.3-0.4,0.5-0.6,0.8c-0.3,0.5-0.5,1.1-0.6,1.6c-0.1,0.5-0.1,1-0.1,1.5
			c0,0.2,0,0.5,0.1,0.7c0,0.1,0,0.2,0.1,0.3l0,0.2l0,0l0,0.1l0,0.1l0.1,0.3c0,0.1,0.1,0.2,0.1,0.4c0,0,0,0.1,0,0.1
			c-0.6,1-1.2,2-1.8,3c-0.7,1.1-1.4,2.2-2,3.2c-0.4,0.7-0.9,1.4-1.2,2.1c0-0.1-0.1-0.1-0.1-0.2c-0.1-0.3-0.2-0.6-0.3-0.8l-0.4,0.3
			c0,0,0.1,0.8,0.3,1.3c-0.5,0.8-1,1.6-1.3,2.2c-0.3,0.6-0.6,1.1-0.8,1.4c-0.2,0.3-0.3,0.5-0.3,0.5s0.1-0.1,0.4-0.4
			c0.3-0.3,0.7-0.6,1.2-1.1c0.4-0.4,1-1,1.5-1.6c0.2,0.2,0.3,0.5,0.6,0.7c0.3,0.3,0.7,0.6,1.3,0.9c0.5,0.2,1.1,0.4,1.7,0.4
			c0.6,0,1.3,0,1.9-0.1c0.3-0.1,0.7-0.1,1-0.2l0.2-0.1l0.1,0l0.1,0l0.1,0c0.2-0.1,0.3-0.1,0.5-0.2c0.7-0.3,1.4-0.6,2-1.3
			c0.3-0.3,0.6-0.8,0.8-1.2c0.2-0.5,0.3-1,0.3-1.5C95,35.4,95,34.9,94.9,34.5z M91.4,23.6c1.8,0.1-0.7,3.3-0.7,3.3
			S90.3,23.6,91.4,23.6z M92.3,36.4c-0.1,0.2-0.1,0.3-0.2,0.5c-0.2,0.4-0.7,0.7-1.1,1c-0.1,0.1-0.2,0.1-0.4,0.2l-0.1,0.1l0,0l0,0
			c0,0,0,0,0,0l-0.1,0l-0.2,0.1c-0.3,0.1-0.5,0.2-0.8,0.3c-1,0.4-1.9,0.5-2.7,0.3c-0.7-0.1-1.3-0.5-1.7-1c0.6-0.6,1.2-1.3,1.9-2.1
			c0.8-0.9,1.6-1.9,2.5-2.9c0.4-0.5,0.8-0.9,1.1-1.4c0.2,0.3,0.3,0.6,0.5,0.9c0.3,0.7,0.7,1.3,0.9,1.9c0.1,0.3,0.2,0.6,0.3,0.8
			c0.1,0.3,0.1,0.5,0.1,0.7C92.3,36.1,92.3,36.3,92.3,36.4z"/>
		<path d="M57.3,17.9c0.1-0.2,0.2-0.3,0.2-0.5c0.1-0.2,0.2-0.3,0.2-0.5l0.1-0.1l0.1-0.2l0-0.1l0-0.1c0-0.1,0-0.1,0.1-0.2
			c0-0.1,0.1-0.3,0.1-0.5c0-0.1,0-0.2,0-0.3c0-0.1,0-0.3-0.1-0.4c0-0.1-0.1-0.2-0.1-0.2c0,0,0-0.1-0.1-0.1c0,0,0-0.1-0.1-0.1
			c-0.1-0.1-0.2-0.2-0.3-0.3c-0.1-0.1-0.2-0.2-0.4-0.2C56.9,14,56.8,14,56.7,14c-0.1,0-0.1,0-0.2,0c-0.1,0-0.1,0-0.2,0
			c-0.2,0-0.4,0-0.5,0.1c-0.1,0-0.1,0-0.2,0.1c-0.1,0-0.1,0-0.1,0.1c-0.1,0-0.2,0.1-0.2,0.1l-0.2,0.1c-0.1,0-0.1,0.1-0.1,0.1
			c-0.4,0.3-0.6,0.6-0.8,0.9c-0.4,0.6-0.7,1.2-1,1.7c-0.3,0.6-0.5,1.1-0.7,1.7c0,0,0,0,0,0c-0.8,0.6-1.7,1.1-2.6,1.5
			c-0.3,0.1-0.6,0.2-0.9,0.4c0.1-0.2,0.2-0.4,0.2-0.6c0.2-0.5,0.4-1,0.5-1.6c0.1-0.3,0.1-0.6,0.2-0.9c0.1-0.3,0.1-0.7,0.1-1.1l0-0.2
			l0-0.2l0-0.2c0-0.1,0-0.1,0-0.2l-0.1-0.2c0-0.1-0.1-0.1-0.1-0.2c0-0.1-0.1-0.3-0.2-0.4c-0.1-0.1-0.2-0.3-0.3-0.4
			c-0.1-0.1-0.3-0.2-0.4-0.3c-0.2-0.1-0.3-0.1-0.4-0.2c-0.1,0-0.1,0-0.2,0l-0.2,0l-0.2,0l-0.1,0c0,0,0,0-0.1,0l-0.2,0
			c-0.1,0-0.2,0-0.4,0c-0.1,0-0.2,0-0.3,0.1l-0.3,0.1l-0.3,0.1c-0.2,0.1-0.4,0.1-0.5,0.2c-0.7,0.4-1.3,0.8-1.7,1.4
			c-0.5,0.5-0.8,1.2-1.1,1.8c-0.3,0.7-0.5,1.3-0.6,2.1l0,0.3l0,0.3c0,0.2,0,0.4,0,0.6c0,0.2,0.1,0.4,0.1,0.6
			c0.1,0.2,0.1,0.4,0.3,0.7c0.1,0.2,0.2,0.4,0.4,0.6c0.1,0.1,0.2,0.2,0.3,0.3c0.1,0.1,0.2,0.2,0.3,0.3c0.1,0.1,0.2,0.2,0.3,0.2
			c0.1,0.1,0.2,0.1,0.3,0.2c0.2,0.1,0.5,0.2,0.7,0.2c0.1,0,0.2,0,0.4,0.1c0,0.1-0.1,0.2-0.1,0.3c-0.7,1.7-1.4,3.2-2.1,4.5
			c0,0.1-0.1,0.1-0.1,0.2c-0.3,0.5-0.6,1-1,1.5c-0.4,0.7-0.9,1.3-1.4,1.9c-0.5,0.6-0.9,1.3-1.4,1.9c-0.5,0.6-1,1.2-1.5,1.7
			c-0.1,0.1-0.3,0.3-0.4,0.4c-0.1,0.1-0.3,0.2-0.4,0.3l-0.2,0.2l-0.2,0.1c-0.2,0.1-0.2,0.1-0.3,0.2c0,0,0,0,0,0l-0.1,0l0,0
			c0-0.1,0-0.1,0-0.2c0-0.3,0-0.6,0-1c0-0.4,0.1-0.7,0.1-1.1c0.1-0.7,0.3-1.5,0.4-2.2c0.2-0.8,0.4-1.5,0.6-2.3
			c0.1-0.4,0.2-0.8,0.4-1.2l0.1-0.2l0.5-1.5c0.2-0.5,0.4-1,0.5-1.5l0.5-1.5c0.1-0.4,0.2-0.7,0.4-1.1c0,0,0-0.1,0-0.1
			c0-0.1,0-0.1,0.1-0.2c0.3-1.2,0-1.8-0.4-2l-0.9-0.2c0-0.1,0-0.2,0-0.4c-0.1-0.3-0.2-0.6-0.4-0.8c-0.3-0.2-0.6-0.3-0.9-0.2
			c-0.3,0-0.6,0.1-0.8,0.2l-0.4,0.1l-0.4,0.2c-0.3,0.1-0.5,0.2-0.7,0.3c-0.2,0.1-0.5,0.3-0.7,0.4c-0.9,0.5-1.8,1.2-2.6,1.9
			c-0.8,0.7-1.6,1.5-2.3,2.3c-0.7,0.8-1.4,1.7-2,2.6l-0.4,0.7l-0.4,0.7l-0.2,0.4l-0.2,0.4c-0.1,0.2-0.2,0.5-0.4,0.8
			c-0.5,1-0.9,2.1-1.1,3.2c-0.2,1.1-0.3,2.4,0.1,3.7c0.2,0.6,0.5,1.3,1,1.9c0.3,0.3,0.6,0.6,0.9,0.8c0.4,0.2,0.8,0.3,1.2,0.4
			c0.1,0,0.2,0,0.3,0c0.1,0,0.2,0,0.3,0l0,0c-0.1,0,0.1,0,0.1,0l0,0l0,0l0.1,0l0.2,0l0.1,0c0,0,0.1,0,0.1,0l0.3-0.1
			c0.1,0,0.2-0.1,0.3-0.1c0.1,0,0.2-0.1,0.2-0.1l0.5-0.2l0.4-0.2l0.2-0.1l0.2-0.1l0.4-0.3c0.9-0.7,1.7-1.5,2.4-2.4
			c0,0.3,0,0.6,0.1,1c0,0.3,0.1,0.5,0.3,0.8c0,0.1,0.1,0.2,0.1,0.2c0,0.1,0.1,0.2,0.2,0.2c0.1,0.2,0.3,0.3,0.5,0.5
			c0.1,0.1,0.2,0.1,0.3,0.2c0.1,0,0.2,0.1,0.3,0.1c0.1,0,0.2,0,0.3,0c0.1,0,0.2,0,0.3,0l0.1,0l0.1,0l0,0c0,0,0.2-0.1,0.1,0l0,0
			l0.1-0.1l0.1-0.1l0.1,0c0,0,0.1,0,0.1,0c0.3-0.1,0.6-0.3,0.7-0.4c0.1-0.1,0.2-0.1,0.3-0.2l0.3-0.2c0.2-0.1,0.3-0.3,0.5-0.5
			c0.2-0.2,0.3-0.3,0.4-0.5c0.6-0.6,1.1-1.3,1.5-2c0.5-0.7,0.9-1.4,1.3-2.1c0.4-0.7,0.8-1.4,1.2-2.1c0.3-0.5,0.5-1,0.7-1.5
			c0.9-1.3,1.8-2.9,2.8-4.6c0.2-0.4,0.4-0.8,0.7-1.2c0,0,0,0,0,0l0.1,0l0.1,0l0,0c0,0,0.1,0,0.1,0l0.2-0.1l0.4-0.1l0.4-0.1l0.5-0.2
			c0.6-0.2,1.2-0.4,1.9-0.7c0.1,0,0.1-0.1,0.2-0.1c-0.1,0.3-0.1,0.5-0.2,0.8c-0.1,0.5-0.3,1-0.4,1.6c-0.5,2-0.9,4-1.2,5.8
			c-0.3,1.8-0.6,3.5-0.7,5c-0.1,1.5-0.1,2.9,0.2,3.9c0.1,0.5,0.3,1,0.6,1.4c0.1,0.2,0.3,0.3,0.5,0.4c0.2,0.1,0.3,0.1,0.5,0.2
			c0.3,0,0.5,0,0.7,0c0.1,0,0.2-0.1,0.2-0.1s-0.1,0-0.2,0c-0.1,0-0.4,0-0.6-0.1c-0.3-0.1-0.5-0.3-0.7-0.6c-0.2-0.3-0.3-0.8-0.3-1.3
			c-0.1-1,0.1-2.3,0.4-3.7c0.3-1.4,0.7-3,1.2-4.8c0.5-1.7,1.1-3.6,1.7-5.6c0.3-1,0.6-2,1-3c0.2-0.6,0.4-1.2,0.6-1.8
			c0,0,0.1,0,0.1-0.1C55.6,20.2,56.6,19.1,57.3,17.9z M56.8,16.6C56.8,16.6,56.8,16.6,56.8,16.6C56.8,16.6,56.8,16.6,56.8,16.6
			L56.8,16.6z M35.8,25.6c0,0.1-0.1,0.3-0.1,0.4c-0.1,0.3-0.2,0.6-0.3,0.9l-0.5,1.5l-0.3,0.7l0,0.1l0,0c0,0,0,0,0,0l0,0l0,0
			l-0.1,0.2l-0.1,0.3c-0.4,0.9-0.8,1.8-1.3,2.7c-0.5,0.9-1,1.7-1.5,2.5c-0.6,0.8-1.2,1.5-1.9,2.1l-0.3,0.2l-0.1,0.1l-0.1,0.1
			l-0.3,0.2l-0.3,0.1c0,0-0.1,0.1-0.1,0.1c0,0-0.1,0-0.1,0c0,0-0.1,0-0.1,0c0,0,0,0,0,0l-0.1,0l-0.2,0l-0.1,0l0,0c0,0,0,0,0,0
			c0,0-0.1,0-0.1,0c-0.2,0-0.4-0.1-0.6-0.3c-0.1-0.1-0.2-0.2-0.3-0.4c-0.1-0.1-0.2-0.3-0.2-0.5c-0.2-0.7-0.3-1.7-0.2-2.6
			c0.1-0.5,0.2-0.9,0.3-1.4c0.1-0.5,0.3-0.9,0.5-1.4c0.1-0.2,0.2-0.4,0.3-0.7l0.2-0.3l0.2-0.3l0.3-0.7l0.4-0.7
			c0.5-0.9,1-1.8,1.6-2.6c0.6-0.8,1.2-1.6,1.9-2.4c0.7-0.7,1.5-1.4,2.3-2c0.2-0.2,0.4-0.3,0.6-0.4c0.2-0.1,0.4-0.3,0.6-0.4l0.3-0.2
			l0.4-0.2c0.2-0.1,0.4-0.2,0.7-0.2c0.2,0,0.4,0,0.6,0.1c0.2,0.1,0.3,0.3,0.4,0.5c0,0.1,0,0.2,0.1,0.2l-0.8-0.2
			c-0.3,0.8-0.5,1.5-0.8,2.3C36.2,24,36,24.8,35.8,25.6z M35.8,37.7L35.8,37.7L35.8,37.7C35.8,37.7,35.8,37.7,35.8,37.7
			C35.8,37.7,35.8,37.7,35.8,37.7C35.8,37.7,35.8,37.7,35.8,37.7C35.8,37.7,35.9,37.7,35.8,37.7L35.8,37.7z M47.6,16.6
			C47.6,16.6,47.6,16.6,47.6,16.6C47.6,16.5,47.6,16.5,47.6,16.6z M47.7,17.3c0,0.2-0.1,0.5-0.1,0.7c-0.1,0.5-0.2,1-0.4,1.4
			c-0.2,0.7-0.5,1.4-0.7,2.1c-0.4,0.1-0.7,0.1-0.9,0c-0.1,0-0.1,0-0.2,0c0,0,0,0-0.1,0c0,0,0,0,0,0c-0.1,0-0.1-0.1-0.2-0.2
			c-0.1-0.2-0.2-0.6-0.1-1c0-0.4,0.1-0.9,0.3-1.3c0.3-0.9,0.9-1.6,1.6-2c0.1,0,0.2-0.1,0.2-0.1l0.1-0.1c0,0,0.1,0,0.1,0
			c0,0,0.1,0,0.1,0c0,0,0,0,0.1,0l0,0c0,0,0,0,0,0l0.1,0l0,0C47.7,16.9,47.7,17.1,47.7,17.3z M55.2,15.6
			C55.2,15.6,55.2,15.6,55.2,15.6C55.2,15.6,55.2,15.6,55.2,15.6C55.2,15.6,55.2,15.6,55.2,15.6z"/>
		<path d="M82.5,30.9c0.1-0.2,0.2-0.4,0.3-0.6c0.1-0.1,0.1-0.2,0.1-0.2s-0.2,0.2-0.5,0.7c-0.2,0.2-0.4,0.5-0.6,0.8
			c-0.3,0.3-0.6,0.6-0.9,0.9c-0.2,0.1-0.4,0.3-0.6,0.3c-0.1,0-0.1,0-0.2,0c1.1-2,1.9-4.1,2.5-6.2c0.3-1.2,0.6-2.3,0.6-3.6
			c0-0.6,0.1-1.2,0-1.9c0-0.3-0.1-0.7-0.2-1c-0.1-0.4-0.2-0.7-0.5-1.1c-0.1-0.2-0.3-0.4-0.5-0.6l-0.1-0.1l0,0c-0.1-0.1,0,0-0.1-0.1
			l0,0l-0.2-0.1c0,0-0.2-0.1-0.3-0.2c-0.1-0.1-0.2-0.1-0.3-0.2c-0.2-0.1-0.4-0.2-0.6-0.2c-0.4-0.1-1-0.1-1.4,0
			c-0.5,0.1-0.8,0.4-1.1,0.6c-0.6,0.5-0.9,1.1-1.2,1.7c-0.2,0.5-0.3,0.9-0.5,1.4c-0.9,0.4-2,1-3,1.9c-0.3,0.2-0.6,0.5-0.8,0.8
			c-0.3,0.3-0.5,0.6-0.8,0.9c-0.1,0.2-0.3,0.3-0.4,0.5l-0.1,0.1L71,25.6c-0.1,0.1-0.1,0.2-0.2,0.2c-0.2,0.3-0.5,0.7-0.7,1.1
			c-1,1.5-1.9,3.2-2.6,5.2c-0.4,1-0.7,2-0.8,3.1c-0.1,0.6-0.1,1.2-0.1,1.8c0,0.6,0.1,1.4,0.6,2.1c0.1,0.2,0.2,0.4,0.4,0.5
			c0.2,0.2,0.3,0.3,0.5,0.5c0.1,0.1,0.2,0.1,0.3,0.2c0.1,0.1,0.2,0.1,0.3,0.1c0.1,0,0.2,0.1,0.3,0.1l0.3,0.1c0.8,0.2,1.6,0.1,2.2,0
			c0.2,0,0.3-0.1,0.5-0.1l0.2-0.1l0,0c0,0,0.1,0,0.1,0l0,0l0.1,0c0.1,0,0.1,0,0.2-0.1l0.3-0.1c0.2-0.1,0.3-0.1,0.5-0.2
			c0.6-0.3,1.1-0.7,1.7-1c1-0.8,1.9-1.7,2.7-2.7c0.7-0.8,1.3-1.7,1.8-2.7c0.4,0,0.7-0.1,1-0.2c0.3-0.2,0.5-0.4,0.7-0.6
			c0.4-0.4,0.6-0.8,0.8-1.1C82.2,31.4,82.3,31.1,82.5,30.9z M79.4,20.1c0.1-0.1,0.2-0.1,0.2-0.1c0,0,0.1,0,0.1,0c0,0,0.1,0,0.1,0.1
			c0,0,0,0,0.1,0c0,0,0,0,0.1,0.1l0.2,0.1l0,0c0,0,0.1,0.1,0,0l0,0c0,0,0,0,0,0c0,0,0,0,0,0.1c0.1,0.2,0.2,0.6,0.2,1
			c0,0.4,0,0.9-0.1,1.4c-0.1,1-0.4,2-0.7,3c-0.4,1.4-0.9,2.7-1.5,4c0-0.1,0-0.2-0.1-0.3c-0.1-0.7-0.2-1.5-0.3-2.4
			c-0.1-0.8-0.1-1.7,0-2.5c0.1-0.9,0.2-1.8,0.5-2.6c0.1-0.4,0.3-0.8,0.5-1.2c0-0.1,0.1-0.2,0.1-0.2c0.4-0.1,0.6-0.1,0.6-0.1
			s-0.2,0-0.5,0C79.1,20.3,79.2,20.2,79.4,20.1z M75.4,34.5c-0.6,0.8-1.3,1.6-2.1,2.2c-0.4,0.3-0.8,0.6-1.2,0.8
			c-0.1,0-0.2,0.1-0.3,0.1l-0.1,0.1c0,0-0.1,0-0.2,0.1l-0.1,0l0,0l0,0l-0.2,0c-0.1,0-0.2,0.1-0.3,0.1c-0.4,0.1-0.8,0.1-1.1,0.1
			c-0.2-0.1-0.3-0.1-0.5-0.3c-0.1-0.2-0.2-0.5-0.3-1c0-0.4,0-0.9,0-1.3c0.1-0.9,0.3-1.9,0.5-2.8c0.5-1.8,1.2-3.5,1.9-5
			c0.2-0.4,0.4-0.7,0.6-1.1c0.1-0.1,0.1-0.2,0.2-0.3l0.1-0.1l0.1-0.1c0.1-0.2,0.2-0.3,0.3-0.5c0.2-0.3,0.4-0.6,0.6-0.9
			c0.2-0.3,0.4-0.5,0.7-0.8c0.7-0.8,1.4-1.4,2-1.9c-0.3,1.9-0.2,3.7,0.1,5.3c0.2,0.9,0.4,1.7,0.6,2.5c0.2,0.6,0.4,1.1,0.6,1.6
			c-0.1,0.1-0.1,0.2-0.2,0.3C76.6,32.8,76,33.7,75.4,34.5z"/>
		<path d="M58.7,35.7c0.2-0.7,0.4-1.4,0.7-2.1c0.2-0.3,0.5-0.6,0.7-0.9c1-1.3,2.2-2.8,3.4-4.5c1.2-1.7,2.5-3.5,3.9-5.5
			c1.3-2,2.7-4.1,4.1-6.3c0.7-1.1,1.4-2.3,2-3.4c0.7-1.2,1.3-2.4,1.8-3.7c0.1-0.3,0.3-0.7,0.4-1C75.8,7.9,75.9,7.5,76,7
			c0-0.2,0.1-0.5,0.1-0.8c0-0.3,0-0.7-0.2-1.1c-0.1-0.2-0.3-0.5-0.6-0.7c-0.3-0.2-0.6-0.3-0.8-0.4c-0.5-0.1-0.8,0-1.1,0l-0.1,0
			c-0.1,0,0.1,0-0.2,0l-0.1,0l-0.1,0l-0.1,0c-0.1,0-0.1,0.1-0.2,0.1c-0.1,0.1-0.3,0.1-0.4,0.2l-0.3,0.2c-0.4,0.3-0.7,0.5-1,0.8
			c-0.6,0.5-1.1,1.1-1.5,1.7c-0.9,1.1-1.7,2.3-2.4,3.5c-0.7,1.2-1.4,2.4-2.1,3.6c-0.6,1.2-1.2,2.4-1.8,3.7c-0.6,1.2-1.1,2.4-1.6,3.6
			c-1,2.4-1.9,4.8-2.6,7.1c-0.7,2.3-1.3,4.5-1.8,6.5c0,0.2-0.1,0.3-0.1,0.5c0,0,0,0.1-0.1,0.1c-0.6,1-1.1,1.9-1.4,2.4
			C55.2,38.7,55,39,55,39s0.2-0.3,0.6-0.8c0.3-0.3,0.7-0.8,1.1-1.4c-0.2,1.4-0.4,2.8-0.4,4c0,0.9,0,1.7,0.2,2.4
			c0.2,0.7,0.4,1.5,0.9,2c0.1,0.1,0.1,0.1,0.2,0.2c0.1,0.1,0.1,0.1,0.2,0.1c0.1,0.1,0.3,0.2,0.4,0.2c0.1,0,0.1,0,0.2,0.1
			c0.1,0,0.1,0,0.2,0c0.1,0,0.3,0,0.4,0c0.5,0,0.9-0.2,1.2-0.3c0.2-0.1,0.3-0.1,0.4-0.2c0.1-0.1,0.2-0.1,0.3-0.1
			c0.1-0.1,0.2-0.1,0.2-0.1s-0.1,0-0.2,0.1c-0.1,0-0.2,0.1-0.3,0.1c-0.1,0-0.3,0.1-0.4,0.1c-0.3,0.1-0.7,0.1-1.1,0.1
			c-0.4,0-0.9-0.2-1.2-0.7c-0.3-0.4-0.4-1-0.5-1.7c0-0.7,0-1.4,0.1-2.2C57.7,39.4,58.1,37.6,58.7,35.7z M64.4,22.6
			c0.5-1.2,1.1-2.3,1.7-3.5c0.6-1.2,1.2-2.3,1.8-3.5c0.6-1.2,1.3-2.3,2-3.5c0.7-1.1,1.4-2.2,2.3-3.2c0.4-0.5,0.8-0.9,1.2-1.3
			c-0.1,0.2-0.1,0.3-0.2,0.5c-0.5,1.2-1,2.4-1.6,3.5c-0.6,1.2-1.2,2.3-1.8,3.4c-1.2,2.2-2.5,4.4-3.7,6.4c-1.2,2-2.4,3.9-3.4,5.7
			c-0.2,0.4-0.5,0.8-0.7,1.2C62.7,26.4,63.5,24.5,64.4,22.6z"/>
		<path d="M11.3,20.7c0.1-0.3,0.2-0.5,0.3-0.8c1-2.5,2-4.8,3.3-7c1.3-2.1,2.8-4,4.4-5.3C19.9,7.3,20.5,7,21,6.8c1-0.6,2.1-1,3.2-0.8
			c3.7,0.7,4.9,6.1,3.1,10.6c-0.7,1.8-1.3,3-1.9,3.9c0.1-0.1,0.3-0.1,0.4-0.2c0.5-0.3,1-0.8,1.5-1.4c0.1-0.1,0.2-0.3,0.3-0.5
			c0.1-0.2,0.2-0.3,0.3-0.5c0.2-0.4,0.4-0.7,0.6-1.1c0.3-0.8,0.6-1.7,0.8-2.8c0.2-1,0.2-2.1,0-3.2c-0.2-1.1-0.5-2.3-1.1-3.4
			c-0.6-1.1-1.5-2.1-2.6-2.7c-0.2-0.1-0.4-0.2-0.6-0.3C16.8,1.6,8.9,18.6,8.9,18.6s-9.8,20.1,1.8,22h0c0.5,0.1,1,0.2,1.5,0.2
			c1.3,0,2.4-0.4,3.4-0.8c1-0.5,1.9-1.1,2.7-1.7c1.6-1.2,2.9-2.5,3.9-3.8c0.5-0.6,0.8-0.9,0.6-1.1c-1.2,1-1.6,1.3-3.2,2.3
			c-3,1.9-5.2,2.6-6.7,2.5c0,0,0,0,0,0c-2.1,0.3-8.1-1.3-1.4-17.4C11.3,20.8,11.3,20.8,11.3,20.7z"/>
	</g>
	<path class="st0" d="M90.9,13.1c0-0.4-0.2-0.8-0.3-1.2c-0.2-0.4-0.4-0.7-0.6-0.9c-0.1-0.1-0.3-0.3-0.4-0.4c-0.4-0.1-1-0.1-1,0.9
		c0,0.1,0,0.2,0,0.3c0,0.1,0,0.2,0,0.3c0,0,0,0,0,0c0.2,1-0.6,4.6-1.3,6c-0.4,0.6-0.6,1.3-0.7,1.9c0.1,0,0.2-0.1,0.3-0.2
		c0.3-0.2,0.8-0.4,1.2-0.7c0.4-0.4,1-0.8,1.4-1.4c0.2-0.3,0.4-0.6,0.6-0.9c0.2-0.4,0.3-0.7,0.5-1.1c0.1-0.4,0.2-0.8,0.3-1.2
		C91,14,91,13.6,90.9,13.1z"/>
</g>
</svg>
